%!PS-Adobe-3.0 EPSF-3.0
%%Creator: cairo 1.17.4 (https://cairographics.org)
%%CreationDate: Thu Jul 29 17:51:55 2021
%%Pages: 1
%%DocumentData: Clean7Bit
%%LanguageLevel: 2
%%BoundingBox: 0 0 403 226
%%EndComments
%%BeginProlog
50 dict begin
/q { gsave } bind def
/Q { grestore } bind def
/cm { 6 array astore concat } bind def
/w { setlinewidth } bind def
/J { setlinecap } bind def
/j { setlinejoin } bind def
/M { setmiterlimit } bind def
/d { setdash } bind def
/m { moveto } bind def
/l { lineto } bind def
/c { curveto } bind def
/h { closepath } bind def
/re { exch dup neg 3 1 roll 5 3 roll moveto 0 rlineto
      0 exch rlineto 0 rlineto closepath } bind def
/S { stroke } bind def
/f { fill } bind def
/f* { eofill } bind def
/n { newpath } bind def
/W { clip } bind def
/W* { eoclip } bind def
/BT { } bind def
/ET { } bind def
/BDC { mark 3 1 roll /BDC pdfmark } bind def
/EMC { mark /EMC pdfmark } bind def
/cairo_store_point { /cairo_point_y exch def /cairo_point_x exch def } def
/Tj { show currentpoint cairo_store_point } bind def
/TJ {
  {
    dup
    type /stringtype eq
    { show } { -0.001 mul 0 cairo_font_matrix dtransform rmoveto } ifelse
  } forall
  currentpoint cairo_store_point
} bind def
/cairo_selectfont { cairo_font_matrix aload pop pop pop 0 0 6 array astore
    cairo_font exch selectfont cairo_point_x cairo_point_y moveto } bind def
/Tf { pop /cairo_font exch def /cairo_font_matrix where
      { pop cairo_selectfont } if } bind def
/Td { matrix translate cairo_font_matrix matrix concatmatrix dup
      /cairo_font_matrix exch def dup 4 get exch 5 get cairo_store_point
      /cairo_font where { pop cairo_selectfont } if } bind def
/Tm { 2 copy 8 2 roll 6 array astore /cairo_font_matrix exch def
      cairo_store_point /cairo_font where { pop cairo_selectfont } if } bind def
/g { setgray } bind def
/rg { setrgbcolor } bind def
/d1 { setcachedevice } bind def
/cairo_data_source {
  CairoDataIndex CairoData length lt
    { CairoData CairoDataIndex get /CairoDataIndex CairoDataIndex 1 add def }
    { () } ifelse
} def
/cairo_flush_ascii85_file { cairo_ascii85_file status { cairo_ascii85_file flushfile } if } def
/cairo_image { image cairo_flush_ascii85_file } def
/cairo_imagemask { imagemask cairo_flush_ascii85_file } def
%%EndProlog
%%BeginSetup
%%EndSetup
%%Page: 1 1
%%BeginPageSetup
%%PageBoundingBox: 0 0 403 226
%%EndPageSetup
q 0 0 403 226 rectclip
1 0 0 -1 0 226 cm q
0 g
116.551 219.301 m 108.977 219.301 103.051 213.148 103.051 205.426 c 103.051
 197.625 108.977 191.551 116.551 191.551 c 120.375 191.551 124.352 193.426
 127.051 196.574 c 130.801 191.699 l 127.125 187.949 121.801 185.625 116.398
 185.625 c 105.227 185.625 96.523 194.25 96.523 205.426 c 96.523 216.75 
105.148 225.449 116.176 225.449 c 121.5 225.449 126.977 222.898 130.801 
219 c 127.051 214.574 l 124.199 217.5 120.301 219.301 116.551 219.301 c 
h
116.551 219.301 m f
155.625 185.852 m 138.898 225.227 l 145.574 225.227 l 149.176 216.301 l
 168.227 216.301 l 171.824 225.227 l 178.648 225.227 l 162.148 185.852 l
 h
151.574 210.449 m 158.699 192.977 l 165.824 210.449 l h
151.574 210.449 m f
210.602 212.023 m 198.074 185.852 l 190.5 185.852 l 190.5 225.227 l 196.5
 225.227 l 196.5 195.824 l 208.5 221.102 l 212.625 221.102 l 224.551 195.824
 l 224.625 225.227 l 230.477 225.227 l 230.477 185.852 l 222.977 185.852
 l h
210.602 212.023 m f
262.352 185.852 m 247.273 185.852 l 247.273 225.227 l 253.648 225.227 l
 253.648 213.375 l 262.352 213.375 l 271.875 213.375 277.352 208.199 277.352
 199.273 c 277.352 190.727 271.875 185.852 262.352 185.852 c h
262.125 207.375 m 253.727 207.375 l 253.727 191.773 l 262.125 191.773 l
 267.977 191.773 271.273 194.25 271.273 199.426 c 271.199 204.824 267.977
 207.375 262.125 207.375 c h
262.125 207.375 m f
316.199 208.875 m 316.199 215.551 312.375 219.523 306.227 219.523 c 300
 219.523 296.102 215.551 296.102 208.875 c 296.102 185.773 l 289.727 185.773
 l 289.727 208.875 l 289.727 219.148 296.023 225.449 306.227 225.449 c 316.426
 225.449 322.648 219.148 322.648 208.875 c 322.648 185.773 l 316.273 185.773
 l 316.273 208.875 l h
316.199 208.875 m f
344.324 195.898 m 344.324 193.273 346.727 191.773 350.477 191.773 c 353.324
 191.773 357.449 192.824 361.574 195.449 c 364.199 189.602 l 360.676 187.199
 355.875 185.551 350.926 185.551 c 342.676 185.551 337.125 189.75 337.125
 196.5 c 337.125 210.523 357.523 205.648 357.523 214.426 c 357.523 217.426
 354.898 219.227 350.477 219.227 c 346.426 219.227 341.551 217.199 337.648
 213.449 c 334.875 219.227 l 338.773 222.898 344.398 225.449 350.324 225.449
 c 358.648 225.449 364.574 221.102 364.574 214.051 c 364.727 199.875 344.324
 204.523 344.324 195.898 c h
344.324 195.898 m f
255.898 161.25 m 283.273 161.25 305.551 139.125 305.551 111.824 c 305.551
 84.523 283.352 62.398 255.898 62.398 c 228.449 62.398 206.25 84.523 206.25
 111.824 c 206.25 139.125 228.523 161.25 255.898 161.25 c h
255.898 86.023 m 270.227 86.023 281.926 97.574 281.926 111.898 c 281.926
 126.227 270.301 137.773 255.898 137.773 c 241.574 137.773 229.875 126.227
 229.875 111.898 c 229.875 97.574 241.574 86.023 255.898 86.023 c h
255.898 86.023 m f
96.898 161.25 m 120.523 161.25 l 120.523 113.25 l 120.523 98.699 132.148
 86.852 146.551 86.852 c 160.875 86.852 172.574 98.699 172.574 113.25 c 
172.574 161.25 l 196.199 161.25 l 196.199 113.25 l 196.199 85.426 174 62.852
 146.551 62.852 c 119.176 62.852 96.898 85.426 96.898 113.25 c h
96.898 161.25 m f
43.352 113.926 m 43.352 110.625 42.75 107.477 41.625 104.625 c 25.648 62.926
 l 0.148 62.926 l 28.5 136.648 l 37.273 133.051 43.352 124.352 43.352 113.926
 c h
43.352 113.926 m f
364.648 161.25 m 402.375 62.852 l 376.949 62.852 l 339.227 161.25 l h
364.648 161.25 m f
344.625 113.852 m 344.625 110.551 344.023 107.398 342.898 104.551 c 326.926
 62.852 l 301.5 62.852 l 329.852 136.648 l 338.551 133.051 344.625 124.273
 344.625 113.852 c h
344.625 113.852 m f
75.676 62.852 m 13.352 225.227 l 38.773 225.227 l 101.102 62.852 l h
75.676 62.852 m f
29.852 9.977 m 29.852 14.102 27.375 17.324 23.25 18.375 c 28.273 19.273
 31.273 22.875 31.273 27.898 c 31.273 34.352 25.949 38.324 17.25 38.324 
c 0 38.324 l 0 0.523 l 16.801 0.523 l 24.898 0.523 29.852 4.125 29.852 9.977
 c h
22.426 11.25 m 22.426 8.398 20.176 6.75 16.426 6.75 c 7.273 6.75 l 7.273
 15.898 l 16.426 15.898 l 20.176 15.977 22.426 14.25 22.426 11.25 c h
23.773 27 m 23.773 23.926 21 22.051 16.426 22.051 c 7.273 22.051 l 7.273
 32.023 l 16.426 32.023 l 21.074 32.102 23.773 30.227 23.773 27 c h
23.773 27 m f
75.676 19.352 m 75.676 30.301 66.898 38.852 55.5 38.852 c 44.102 38.852
 35.324 30.301 35.324 19.352 c 35.324 8.324 44.102 0 55.5 0 c 66.898 0 75.676
 8.398 75.676 19.352 c h
42.75 19.352 m 42.75 26.551 48.602 32.324 55.574 32.324 c 62.477 32.324
 68.176 26.625 68.176 19.352 c 68.176 12.148 62.477 6.523 55.574 6.523 c
 48.602 6.523 42.75 12.074 42.75 19.352 c h
42.75 19.352 m f
105.676 38.324 m 99.148 27.148 l 98.699 27.227 98.25 27.227 97.801 27.227
 c 89.25 27.227 l 89.25 38.324 l 82.051 38.324 l 82.051 0.523 l 97.801 0.523
 l 107.551 0.523 113.102 5.25 113.102 13.574 c 113.102 19.5 110.477 23.773
 105.602 25.801 c 113.926 38.324 l h
89.25 20.773 m 97.801 20.773 l 103.199 20.773 106.199 18.449 106.199 13.727
 c 106.199 9.074 103.199 6.824 97.801 6.824 c 89.25 6.824 l h
89.25 20.773 m f
156.449 19.426 m 156.449 30.449 148.125 38.324 136.5 38.324 c 121.051 38.324
 l 121.051 0.523 l 136.801 0.523 l 148.199 0.523 156.449 8.324 156.449 19.426
 c h
149.102 19.426 m 149.102 12 143.773 6.824 136.648 6.824 c 128.25 6.824 
l 128.25 31.875 l 136.875 31.875 l 143.926 31.949 149.102 26.773 149.102
 19.426 c h
149.102 19.426 m f
190.5 0.523 m 190.5 6.824 l 170.023 6.824 l 170.023 16.199 l 188.398 16.199
 l 188.398 22.5 l 170.023 22.5 l 170.023 32.023 l 191.176 32.023 l 191.176
 38.324 l 162.824 38.324 l 162.824 0.523 l h
190.5 0.523 m f
223.125 30.301 m 204.676 30.301 l 201.301 38.324 l 193.801 38.324 l 210.375
 0.523 l 217.875 0.523 l 234.227 38.324 l 226.426 38.324 l h
220.5 24.074 m 213.898 8.176 l 207.227 24.074 l h
220.5 24.074 m f
253.648 32.324 m 259.273 32.324 262.801 28.801 262.801 22.801 c 262.801
 0.523 l 270 0.523 l 270 22.801 l 270 32.699 263.699 38.926 253.574 38.926
 c 243.301 38.926 237 32.773 237 22.801 c 237 0.523 l 244.199 0.523 l 244.199
 22.801 l 244.273 28.727 247.949 32.324 253.648 32.324 c h
253.648 32.324 m f
283.949 0.523 m 292.648 12.898 l 301.352 0.449 l 309.977 0.449 l 297.227
 18.602 l 311.023 38.324 l 302.324 38.324 l 292.648 24.824 l 283.125 38.324
 l 274.648 38.324 l 288.227 18.898 l 275.477 0.449 l 283.949 0.449 l h
283.949 0.523 m f
Q Q
showpage
%%Trailer
end
%%EOF
